<?xml version="1.0" standalone="no"?>
<!DOCTYPE svg PUBLIC "-//W3C//DTD SVG 1.1//EN" "http://www.w3.org/Graphics/SVG/1.1/DTD/svg11.dtd">
<svg version="1.1" width="1200" height="162" onload="init(evt)" viewBox="0 0 1200 162" xmlns="http://www.w3.org/2000/svg" xmlns:xlink="http://www.w3.org/1999/xlink">
<!-- Flame graph stack visualization. See https://github.com/brendangregg/FlameGraph for latest version, and http://www.brendangregg.com/flamegraphs.html for examples. -->
<defs >
	<linearGradient id="background" y1="0" y2="1" x1="0" x2="0" >
		<stop stop-color="#eeeeee" offset="5%" />
		<stop stop-color="#eeeeb0" offset="95%" />
	</linearGradient>
</defs>
<style type="text/css">
	.func_g:hover { stroke:black; stroke-width:0.5; cursor:pointer; }
</style>
<script type="text/ecmascript">
<![CDATA[
	var details, svg;
	function init(evt) { 
		details = document.getElementById("details").firstChild; 
		svg = document.getElementsByTagName("svg")[0];
		searching = 0;
	}

	// mouse-over for info
	function s(info) { details.nodeValue = "sub " + info; }
	function c() { details.nodeValue = ' '; }

	// functions
	function find_child(parent, name, attr) {
		var children = parent.childNodes;
		for (var i=0; i<children.length;i++) {
			if (children[i].tagName == name)
				return (attr != undefined) ? children[i].attributes[attr].value : children[i];
		}
		return;
	}
	function orig_save(e, attr, val) {
		if (e.attributes["_orig_"+attr] != undefined) return;
		if (e.attributes[attr] == undefined) return;
		if (val == undefined) val = e.attributes[attr].value;
		e.setAttribute("_orig_"+attr, val);
	}
	function orig_load(e, attr) {
		if (e.attributes["_orig_"+attr] == undefined) return;
		e.attributes[attr].value = e.attributes["_orig_"+attr].value;
		e.removeAttribute("_orig_"+attr);
	}
	function update_text(e) {
		var r = find_child(e, "rect");
		var t = find_child(e, "text");
		var w = parseFloat(r.attributes["width"].value) -3;
		var txt = find_child(e, "title").textContent.replace(/\([^(]*\)/,"");
		t.attributes["x"].value = parseFloat(r.attributes["x"].value) +3;
		
		// Smaller than this size won't fit anything
		if (w < 2*12*0.59) {
			t.textContent = "";
			return;
		}
		
		t.textContent = txt;
		// Fit in full text width
		if (/^ *$/.test(txt) || t.getSubStringLength(0, txt.length) < w)
			return;
		
		for (var x=txt.length-2; x>0; x--) {
			if (t.getSubStringLength(0, x+2) <= w) { 
				t.textContent = txt.substring(0,x) + "..";
				return;
			}
		}
		t.textContent = "";
	}

	// zoom
	function zoom_reset(e) {
		if (e.attributes != undefined) {
			orig_load(e, "x");
			orig_load(e, "width");
		}
		if (e.childNodes == undefined) return;
		for(var i=0, c=e.childNodes; i<c.length; i++) {
			zoom_reset(c[i]);
		}
	}
	function zoom_child(e, x, ratio) {
		if (e.attributes != undefined) {
			if (e.attributes["x"] != undefined) {
				orig_save(e, "x");
				e.attributes["x"].value = (parseFloat(e.attributes["x"].value) - x - 10) * ratio + 10;
				if(e.tagName == "text") e.attributes["x"].value = find_child(e.parentNode, "rect", "x") + 3;
			}
			if (e.attributes["width"] != undefined) {
				orig_save(e, "width");
				e.attributes["width"].value = parseFloat(e.attributes["width"].value) * ratio;
			}
		}
		
		if (e.childNodes == undefined) return;
		for(var i=0, c=e.childNodes; i<c.length; i++) {
			zoom_child(c[i], x-10, ratio);
		}
	}
	function zoom_parent(e) {
		if (e.attributes) {
			if (e.attributes["x"] != undefined) {
				orig_save(e, "x");
				e.attributes["x"].value = 10;
			}
			if (e.attributes["width"] != undefined) {
				orig_save(e, "width");
				e.attributes["width"].value = parseInt(svg.width.baseVal.value) - (10*2);
			}
		}
		if (e.childNodes == undefined) return;
		for(var i=0, c=e.childNodes; i<c.length; i++) {
			zoom_parent(c[i]);
		}
	}
	function zoom(node) { 
		var attr = find_child(node, "rect").attributes;
		var width = parseFloat(attr["width"].value);
		var xmin = parseFloat(attr["x"].value);
		var xmax = parseFloat(xmin + width);
		var ymin = parseFloat(attr["y"].value);
		var ratio = (svg.width.baseVal.value - 2*10) / width;
		
		// XXX: Workaround for JavaScript float issues (fix me)
		var fudge = 0.0001;
		
		var unzoombtn = document.getElementById("unzoom");
		unzoombtn.style["opacity"] = "1.0";
		
		var el = document.getElementsByTagName("g");
		for(var i=0;i<el.length;i++){
			var e = el[i];
			var a = find_child(e, "rect").attributes;
			var ex = parseFloat(a["x"].value);
			var ew = parseFloat(a["width"].value);
			// Is it an ancestor
			if (0 == 0) {
				var upstack = parseFloat(a["y"].value) > ymin;
			} else {
				var upstack = parseFloat(a["y"].value) < ymin;
			}
			if (upstack) {
				// Direct ancestor
				if (ex <= xmin && (ex+ew+fudge) >= xmax) {
					e.style["opacity"] = "0.5";
					zoom_parent(e);
					e.onclick = function(e){unzoom(); zoom(this);};
					update_text(e);
				}
				// not in current path
				else
					e.style["display"] = "none";
			}
			// Children maybe
			else {
				// no common path
				if (ex < xmin || ex + fudge >= xmax) {
					e.style["display"] = "none";
				}
				else {
					zoom_child(e, xmin, ratio);
					e.onclick = function(e){zoom(this);};
					update_text(e);
				}
			}
		}
	}
	function unzoom() {
		var unzoombtn = document.getElementById("unzoom");
		unzoombtn.style["opacity"] = "0.0";
		
		var el = document.getElementsByTagName("g");
		for(i=0;i<el.length;i++) {
			el[i].style["display"] = "block";
			el[i].style["opacity"] = "1";
			zoom_reset(el[i]);
			update_text(el[i]);
		}
	}	

	// search
	function reset_search() {
		var el = document.getElementsByTagName("rect");
		for (var i=0; i < el.length; i++){
			orig_load(el[i], "fill")
		}
	}
	function search_prompt() {
		if (!searching) {
			var term = prompt("Enter a search term (regexp " +
			    "allowed, eg: ^ext4_)", "");
			if (term != null) {
				search(term)
			}
		} else {
			reset_search();
			searching = 0;
			var searchbtn = document.getElementById("search");
			searchbtn.style["opacity"] = "0.1";
			searchbtn.firstChild.nodeValue = "Search"
		}
	}
	function search(term) {
		var re = new RegExp(term);
		var el = document.getElementsByTagName("g");
		for (var i=0; i < el.length; i++){
			var e = el[i];
			if (e.attributes["class"].value == "func_g") {
				// Scrape the function name from the onmouseover
				// callback text. This is a little dirty.
				var func = e.attributes["onmouseover"].value;
				if (func != null) {
					func = func.substr(3);
					func = func.replace(/ .*/, "");
					var r = find_child(e, "rect");
					if (r == null) {
						// the rect might be wrapped in an anchor
						// if nameattr href is being used
						if (r = find_child(e, "a")) {
						    r = find_child(r, "rect");
						}
					}
				}
				if (func != null && r != null &&
				    func.match(re)) {
					orig_save(r, "fill");
					r.attributes["fill"].value =
					    "rgb(230,0,230)";
					searching = 1;
				}
			}
		}
		if (searching) {
			var searchbtn = document.getElementById("search");
			searchbtn.style["opacity"] = "1.0";
			searchbtn.firstChild.nodeValue = "Reset Search"
		}
	}
	function searchover(e) {
		var searchbtn = document.getElementById("search");
		searchbtn.style["opacity"] = "1.0";
	}
	function searchout(e) {
		var searchbtn = document.getElementById("search");
		if (searching) {
			searchbtn.style["opacity"] = "1.0";
		} else {
			searchbtn.style["opacity"] = "0.1";
		}
	}
]]>
</script>
<rect x="0.0" y="0" width="1200.0" height="162.0" fill="url(#background)"  />
<text text-anchor="middle" x="600.00" y="24" font-size="17" font-family="Verdana" fill="rgb(0,0,0)"  >Flame Graph</text>
<text text-anchor="" x="10.00" y="145" font-size="12" font-family="Verdana" fill="rgb(0,0,0)" id="details" > </text>
<text text-anchor="" x="10.00" y="24" font-size="12" font-family="Verdana" fill="rgb(0,0,0)" id="unzoom" onclick="unzoom()" style="opacity:0.0;cursor:pointer" >Reset Zoom</text>
<text text-anchor="" x="1090.00" y="24" font-size="12" font-family="Verdana" fill="rgb(0,0,0)" id="search" onmouseover="searchover()" onmouseout="searchout()" onclick="search_prompt()" style="opacity:0.1;cursor:pointer" >Search</text>
<g class="func_g" onmouseover="s('Exporter::Heavy::heavy_export (2,988 microseconds, 0.05%)')" onmouseout="c()" onclick="zoom(this)">
<title>Exporter::Heavy::heavy_export (2,988 microseconds, 0.05%)</title><a xlink:href="Exporter-Heavy-pm-12-line.html#39" target="_top"><rect x="1184.6" y="33" width="0.6" height="15.0" fill="rgb(238,94,36)" rx="2" ry="2" />
<text text-anchor="" x="1187.60" y="43.5" font-size="12" font-family="Verdana" fill="rgb(0,0,0)"  ></text>
</a>
</g>
<g class="func_g" onmouseover="s('TFIDFSim::sim (5,885,990 microseconds, 93.47%)')" onmouseout="c()" onclick="zoom(this)">
<title>TFIDFSim::sim (5,885,990 microseconds, 93.47%)</title><a xlink:href="TFIDFSim-pm-13-line.html#55" target="_top"><rect x="35.9" y="97" width="1102.9" height="15.0" fill="rgb(227,174,25)" rx="2" ry="2" />
<text text-anchor="" x="38.88" y="107.5" font-size="12" font-family="Verdana" fill="rgb(0,0,0)"  >TFIDFSim::sim</text>
</a>
</g>
<g class="func_g" onmouseover="s('all (6,297,437 microseconds, 100%)')" onmouseout="c()" onclick="zoom(this)">
<title>all (6,297,437 microseconds, 100%)</title><rect x="10.0" y="113" width="1180.0" height="15.0" fill="rgb(255,230,55)" rx="2" ry="2" />
<text text-anchor="" x="13.00" y="123.5" font-size="12" font-family="Verdana" fill="rgb(0,0,0)"  ></text>
</g>
<g class="func_g" onmouseover="s('main::CORE:sort (863 microseconds, 0.01%)')" onmouseout="c()" onclick="zoom(this)">
<title>main::CORE:sort (863 microseconds, 0.01%)</title><a xlink:href="CSVMatch-pl-1-line.html#main__CORE_sort" target="_top"><rect x="1185.7" y="97" width="0.2" height="15.0" fill="rgb(238,83,36)" rx="2" ry="2" />
<text text-anchor="" x="1188.73" y="107.5" font-size="12" font-family="Verdana" fill="rgb(0,0,0)"  ></text>
</a>
</g>
<g class="func_g" onmouseover="s('POSIX::BEGIN@11 (2,983 microseconds, 0.05%)')" onmouseout="c()" onclick="zoom(this)">
<title>POSIX::BEGIN@11 (2,983 microseconds, 0.05%)</title><a xlink:href="POSIX-pm-6-line.html#11" target="_top"><rect x="1180.7" y="81" width="0.6" height="15.0" fill="rgb(231,184,28)" rx="2" ry="2" />
<text text-anchor="" x="1183.72" y="91.5" font-size="12" font-family="Verdana" fill="rgb(0,0,0)"  ></text>
</a>
</g>
<g class="func_g" onmouseover="s('main::BEGIN@5 (1,836 microseconds, 0.03%)')" onmouseout="c()" onclick="zoom(this)">
<title>main::BEGIN@5 (1,836 microseconds, 0.03%)</title><a xlink:href="CSVMatch-pl-1-line.html#5" target="_top"><rect x="1179.3" y="97" width="0.4" height="15.0" fill="rgb(235,83,33)" rx="2" ry="2" />
<text text-anchor="" x="1182.32" y="107.5" font-size="12" font-family="Verdana" fill="rgb(0,0,0)"  ></text>
</a>
</g>
<g class="func_g" onmouseover="s('main::CORE:open (2,231 microseconds, 0.04%)')" onmouseout="c()" onclick="zoom(this)">
<title>main::CORE:open (2,231 microseconds, 0.04%)</title><a xlink:href="CSVMatch-pl-1-line.html#main__CORE_open" target="_top"><rect x="1185.2" y="97" width="0.5" height="15.0" fill="rgb(250,83,49)" rx="2" ry="2" />
<text text-anchor="" x="1188.25" y="107.5" font-size="12" font-family="Verdana" fill="rgb(0,0,0)"  ></text>
</a>
</g>
<g class="func_g" onmouseover="s('TFIDFSim::CORE:readline (1,894 microseconds, 0.03%)')" onmouseout="c()" onclick="zoom(this)">
<title>TFIDFSim::CORE:readline (1,894 microseconds, 0.03%)</title><a xlink:href="TFIDFSim-pm-13-line.html#TFIDFSim__CORE_readline" target="_top"><rect x="1173.9" y="81" width="0.3" height="15.0" fill="rgb(246,174,46)" rx="2" ry="2" />
<text text-anchor="" x="1176.86" y="91.5" font-size="12" font-family="Verdana" fill="rgb(0,0,0)"  ></text>
</a>
</g>
<g class="func_g" onmouseover="s('POSIX::import (3,445 microseconds, 0.05%)')" onmouseout="c()" onclick="zoom(this)">
<title>POSIX::import (3,445 microseconds, 0.05%)</title><a xlink:href="POSIX-pm-6-line.html#21" target="_top"><rect x="1184.5" y="65" width="0.7" height="15.0" fill="rgb(238,184,36)" rx="2" ry="2" />
<text text-anchor="" x="1187.52" y="75.5" font-size="12" font-family="Verdana" fill="rgb(0,0,0)"  ></text>
</a>
</g>
<g class="func_g" onmouseover="s('TFIDFSim::tfidf (211,431 microseconds, 3.36%)')" onmouseout="c()" onclick="zoom(this)">
<title>TFIDFSim::tfidf (211,431 microseconds, 3.36%)</title><a xlink:href="TFIDFSim-pm-13-line.html#17" target="_top"><rect x="1138.8" y="97" width="39.6" height="15.0" fill="rgb(244,174,43)" rx="2" ry="2" />
<text text-anchor="" x="1141.79" y="107.5" font-size="12" font-family="Verdana" fill="rgb(0,0,0)"  >TFI..</text>
</a>
</g>
<g class="func_g" onmouseover="s('Exporter::import (636 microseconds, 0.01%)')" onmouseout="c()" onclick="zoom(this)">
<title>Exporter::import (636 microseconds, 0.01%)</title><a xlink:href="Exporter-pm-8-line.html#28" target="_top"><rect x="1181.1" y="65" width="0.1" height="15.0" fill="rgb(238,94,36)" rx="2" ry="2" />
<text text-anchor="" x="1184.08" y="75.5" font-size="12" font-family="Verdana" fill="rgb(0,0,0)"  ></text>
</a>
</g>
<g class="func_g" onmouseover="s('Tie::Hash::BEGIN@188 (4,622 microseconds, 0.07%)')" onmouseout="c()" onclick="zoom(this)">
<title>Tie::Hash::BEGIN@188 (4,622 microseconds, 0.07%)</title><a xlink:href="Tie-Hash-pm-9-line.html#188" target="_top"><rect x="1182.7" y="81" width="0.9" height="15.0" fill="rgb(242,151,41)" rx="2" ry="2" />
<text text-anchor="" x="1185.69" y="91.5" font-size="12" font-family="Verdana" fill="rgb(0,0,0)"  ></text>
</a>
</g>
<g class="func_g" onmouseover="s('Exporter::as_heavy (2,649 microseconds, 0.04%)')" onmouseout="c()" onclick="zoom(this)">
<title>Exporter::as_heavy (2,649 microseconds, 0.04%)</title><a xlink:href="Exporter-pm-8-line.html#15" target="_top"><rect x="1182.0" y="33" width="0.5" height="15.0" fill="rgb(243,94,42)" rx="2" ry="2" />
<text text-anchor="" x="1185.03" y="43.5" font-size="12" font-family="Verdana" fill="rgb(0,0,0)"  ></text>
</a>
</g>
<g class="func_g" onmouseover="s('POSIX::import (7,417 microseconds, 0.12%)')" onmouseout="c()" onclick="zoom(this)">
<title>POSIX::import (7,417 microseconds, 0.12%)</title><a xlink:href="POSIX-pm-6-line.html#21" target="_top"><rect x="1181.3" y="81" width="1.4" height="15.0" fill="rgb(238,184,36)" rx="2" ry="2" />
<text text-anchor="" x="1184.30" y="91.5" font-size="12" font-family="Verdana" fill="rgb(0,0,0)"  ></text>
</a>
</g>
<g class="func_g" onmouseover="s('main::BEGIN@7 (22,150 microseconds, 0.35%)')" onmouseout="c()" onclick="zoom(this)">
<title>main::BEGIN@7 (22,150 microseconds, 0.35%)</title><a xlink:href="CSVMatch-pl-1-line.html#7" target="_top"><rect x="1179.7" y="97" width="4.1" height="15.0" fill="rgb(232,83,29)" rx="2" ry="2" />
<text text-anchor="" x="1182.67" y="107.5" font-size="12" font-family="Verdana" fill="rgb(0,0,0)"  ></text>
</a>
</g>
<g class="func_g" onmouseover="s('TFIDFSim::hash_max (138,135 microseconds, 2.19%)')" onmouseout="c()" onclick="zoom(this)">
<title>TFIDFSim::hash_max (138,135 microseconds, 2.19%)</title><a xlink:href="TFIDFSim-pm-13-line.html#80" target="_top"><rect x="10.0" y="97" width="25.9" height="15.0" fill="rgb(244,174,43)" rx="2" ry="2" />
<text text-anchor="" x="13.00" y="107.5" font-size="12" font-family="Verdana" fill="rgb(0,0,0)"  >T..</text>
</a>
</g>
<g class="func_g" onmouseover="s('main::BEGIN@8 (7,179 microseconds, 0.11%)')" onmouseout="c()" onclick="zoom(this)">
<title>main::BEGIN@8 (7,179 microseconds, 0.11%)</title><a xlink:href="CSVMatch-pl-1-line.html#8" target="_top"><rect x="1183.8" y="97" width="1.4" height="15.0" fill="rgb(230,83,28)" rx="2" ry="2" />
<text text-anchor="" x="1186.82" y="107.5" font-size="12" font-family="Verdana" fill="rgb(0,0,0)"  ></text>
</a>
</g>
<g class="func_g" onmouseover="s('Exporter::Heavy::heavy_export (3,383 microseconds, 0.05%)')" onmouseout="c()" onclick="zoom(this)">
<title>Exporter::Heavy::heavy_export (3,383 microseconds, 0.05%)</title><a xlink:href="Exporter-Heavy-pm-12-line.html#39" target="_top"><rect x="1181.4" y="49" width="0.6" height="15.0" fill="rgb(238,94,36)" rx="2" ry="2" />
<text text-anchor="" x="1184.39" y="59.5" font-size="12" font-family="Verdana" fill="rgb(0,0,0)"  ></text>
</a>
</g>
<g class="func_g" onmouseover="s('POSIX::log10 (1,666 microseconds, 0.03%)')" onmouseout="c()" onclick="zoom(this)">
<title>POSIX::log10 (1,666 microseconds, 0.03%)</title><a xlink:href="POSIX-pm-6-line.html#POSIX__log10" target="_top"><rect x="1173.1" y="81" width="0.3" height="15.0" fill="rgb(230,184,28)" rx="2" ry="2" />
<text text-anchor="" x="1176.12" y="91.5" font-size="12" font-family="Verdana" fill="rgb(0,0,0)"  ></text>
</a>
</g>
<g class="func_g" onmouseover="s('POSIX::load_imports (917 microseconds, 0.01%)')" onmouseout="c()" onclick="zoom(this)">
<title>POSIX::load_imports (917 microseconds, 0.01%)</title><a xlink:href="POSIX-pm-6-line.html#234" target="_top"><rect x="1182.5" y="65" width="0.2" height="15.0" fill="rgb(235,184,33)" rx="2" ry="2" />
<text text-anchor="" x="1185.52" y="75.5" font-size="12" font-family="Verdana" fill="rgb(0,0,0)"  ></text>
</a>
</g>
<g class="func_g" onmouseover="s('main::BEGIN@2 (759 microseconds, 0.01%)')" onmouseout="c()" onclick="zoom(this)">
<title>main::BEGIN@2 (759 microseconds, 0.01%)</title><a xlink:href="CSVMatch-pl-1-line.html#2" target="_top"><rect x="1178.5" y="97" width="0.1" height="15.0" fill="rgb(240,83,39)" rx="2" ry="2" />
<text text-anchor="" x="1181.45" y="107.5" font-size="12" font-family="Verdana" fill="rgb(0,0,0)"  ></text>
</a>
</g>
<g class="func_g" onmouseover="s('Exporter::export (2,660 microseconds, 0.04%)')" onmouseout="c()" onclick="zoom(this)">
<title>Exporter::export (2,660 microseconds, 0.04%)</title><a xlink:href="Exporter-pm-8-line.html#24" target="_top"><rect x="1182.0" y="49" width="0.5" height="15.0" fill="rgb(238,94,36)" rx="2" ry="2" />
<text text-anchor="" x="1185.02" y="59.5" font-size="12" font-family="Verdana" fill="rgb(0,0,0)"  ></text>
</a>
</g>
<g class="func_g" onmouseover="s('TFIDFSim::CORE:open (1,466 microseconds, 0.02%)')" onmouseout="c()" onclick="zoom(this)">
<title>TFIDFSim::CORE:open (1,466 microseconds, 0.02%)</title><a xlink:href="TFIDFSim-pm-13-line.html#TFIDFSim__CORE_open" target="_top"><rect x="1173.6" y="81" width="0.3" height="15.0" fill="rgb(250,174,49)" rx="2" ry="2" />
<text text-anchor="" x="1176.58" y="91.5" font-size="12" font-family="Verdana" fill="rgb(0,0,0)"  ></text>
</a>
</g>
<g class="func_g" onmouseover="s('TFIDFSim::CORE:close (816 microseconds, 0.01%)')" onmouseout="c()" onclick="zoom(this)">
<title>TFIDFSim::CORE:close (816 microseconds, 0.01%)</title><a xlink:href="TFIDFSim-pm-13-line.html#TFIDFSim__CORE_close" target="_top"><rect x="1173.4" y="81" width="0.2" height="15.0" fill="rgb(245,174,44)" rx="2" ry="2" />
<text text-anchor="" x="1176.43" y="91.5" font-size="12" font-family="Verdana" fill="rgb(0,0,0)"  ></text>
</a>
</g>
<g class="func_g" onmouseover="s('utf8::AUTOLOAD (5,152 microseconds, 0.08%)')" onmouseout="c()" onclick="zoom(this)">
<title>utf8::AUTOLOAD (5,152 microseconds, 0.08%)</title><a xlink:href="utf8-pm-4-line.html#16" target="_top"><rect x="1174.2" y="81" width="1.0" height="15.0" fill="rgb(225,124,22)" rx="2" ry="2" />
<text text-anchor="" x="1177.21" y="91.5" font-size="12" font-family="Verdana" fill="rgb(0,0,0)"  ></text>
</a>
</g>
<g class="func_g" onmouseover="s('TFIDFSim::BEGIN@9 (3,464 microseconds, 0.06%)')" onmouseout="c()" onclick="zoom(this)">
<title>TFIDFSim::BEGIN@9 (3,464 microseconds, 0.06%)</title><a xlink:href="TFIDFSim-pm-13-line.html#9" target="_top"><rect x="1184.5" y="81" width="0.7" height="15.0" fill="rgb(228,174,26)" rx="2" ry="2" />
<text text-anchor="" x="1187.51" y="91.5" font-size="12" font-family="Verdana" fill="rgb(0,0,0)"  ></text>
</a>
</g>
<g class="func_g" onmouseover="s('XSLoader::load (832 microseconds, 0.01%)')" onmouseout="c()" onclick="zoom(this)">
<title>XSLoader::load (832 microseconds, 0.01%)</title><a xlink:href="XSLoader-pm-17-line.html#17" target="_top"><rect x="1183.7" y="81" width="0.1" height="15.0" fill="rgb(243,122,41)" rx="2" ry="2" />
<text text-anchor="" x="1186.66" y="91.5" font-size="12" font-family="Verdana" fill="rgb(0,0,0)"  ></text>
</a>
</g>
<g class="func_g" onmouseover="s('main::BEGIN@3 (3,475 microseconds, 0.06%)')" onmouseout="c()" onclick="zoom(this)">
<title>main::BEGIN@3 (3,475 microseconds, 0.06%)</title><a xlink:href="CSVMatch-pl-1-line.html#3" target="_top"><rect x="1178.6" y="97" width="0.6" height="15.0" fill="rgb(239,83,37)" rx="2" ry="2" />
<text text-anchor="" x="1181.59" y="107.5" font-size="12" font-family="Verdana" fill="rgb(0,0,0)"  ></text>
</a>
</g>
<g class="func_g" onmouseover="s('Exporter::import (3,387 microseconds, 0.05%)')" onmouseout="c()" onclick="zoom(this)">
<title>Exporter::import (3,387 microseconds, 0.05%)</title><a xlink:href="Exporter-pm-8-line.html#28" target="_top"><rect x="1184.5" y="49" width="0.7" height="15.0" fill="rgb(238,94,36)" rx="2" ry="2" />
<text text-anchor="" x="1187.53" y="59.5" font-size="12" font-family="Verdana" fill="rgb(0,0,0)"  ></text>
</a>
</g>
<g class="func_g" onmouseover="s('Exporter::import (6,423 microseconds, 0.10%)')" onmouseout="c()" onclick="zoom(this)">
<title>Exporter::import (6,423 microseconds, 0.10%)</title><a xlink:href="Exporter-pm-8-line.html#28" target="_top"><rect x="1181.3" y="65" width="1.2" height="15.0" fill="rgb(238,94,36)" rx="2" ry="2" />
<text text-anchor="" x="1184.32" y="75.5" font-size="12" font-family="Verdana" fill="rgb(0,0,0)"  ></text>
</a>
</g>
<g class="func_g" onmouseover="s('utf8::SWASHNEW (17,214 microseconds, 0.27%)')" onmouseout="c()" onclick="zoom(this)">
<title>utf8::SWASHNEW (17,214 microseconds, 0.27%)</title><a xlink:href="utf8_heavy-pl-14-line.html#45" target="_top"><rect x="1175.2" y="81" width="3.2" height="15.0" fill="rgb(235,124,33)" rx="2" ry="2" />
<text text-anchor="" x="1178.18" y="91.5" font-size="12" font-family="Verdana" fill="rgb(0,0,0)"  ></text>
</a>
</g>
</svg>
